module github.com/arkise-demise/book-store

go 1.22.1

require (
	github.com/gorilla/mux v1.8.1
	github.com/jinzhu/gorm v1.9.16
)

require (
	github.com/go-sql-driver/mysql v1.7.0 // indirect
	github.com/jinzhu/now v1.1.5 // indirect
)

require github.com/jinzhu/inflection v1.0.0 // indirect
